UD_Afrikaans-AfriBooms UD_Dutch-Alpino 0.20011045655375553
UD_Akkadian-PISANDUB UD_Czech-PDT 0.018922852983988356
UD_Ancient_Greek-PROIEL UD_Ancient_Greek-Perseus 0.3138148057999235
UD_Ancient_Greek-Perseus UD_Ancient_Greek-PROIEL 0.25186983701719134
UD_Arabic-PADT UD_Arabic-PUD 0.1818284936479129
UD_Arabic-PUD UD_Arabic-PADT 0.5604895104895105
UD_Armenian-ArmTDP UD_Russian-PUD 0.0003097413659594239
UD_Bambara-CRB UD_Czech-PDT 0.08816964285714286
UD_Basque-BDT UD_Spanish-AnCora 0.04544436982314753
UD_Belarusian-HSE UD_Russian-SynTagRus 0.08148704468644385
UD_Breton-KEB UD_Norwegian-Bokmaal 0.07127047366091191
UD_Bulgarian-BTB UD_Russian-SynTagRus 0.11819992035045798
UD_Buryat-BDT UD_Russian-SynTagRus 0.04171240395170143
UD_Cantonese-HK UD_Chinese-GSD 0.4205955334987593
UD_Catalan-AnCora UD_Spanish-AnCora 0.18226275442770287
UD_Chinese-CFL UD_Chinese-GSD 0.3359746434231379
UD_Chinese-GSD UD_Japanese-GSD 0.14944486500126167
UD_Croatian-SET UD_Serbian-SET 0.28376235208002926
UD_Czech-CAC UD_Czech-PDT 0.571331228186804
UD_Czech-CLTT UD_Czech-PDT 0.8050717213114754
UD_Czech-FicTree UD_Czech-PDT 0.5788409965408683
UD_Czech-PDT UD_Czech-CAC 0.2740426006823762
UD_Czech-PUD UD_Czech-PDT 0.7852817885421518
UD_Danish-DDT UD_Norwegian-Bokmaal 0.24922551684895997
UD_Dutch-Alpino UD_Dutch-LassySmall 0.22526991537788152
UD_Dutch-LassySmall UD_Dutch-Alpino 0.40701965805528356
UD_English-EWT UD_English-GUM 0.3030319120692402
UD_English-GUM UD_English-EWT 0.569560878243513
UD_English-LinES UD_English-EWT 0.5624290578887627
UD_English-PUD UD_English-EWT 0.6771488469601677
UD_English-ParTUT UD_English-EWT 0.6329635499207606
UD_Estonian-EDT UD_Czech-PDT 0.018670488190679627
UD_Faroese-OFT UD_Norwegian-Nynorsk 0.11766875691626706
UD_Finnish-FTB UD_Finnish-TDT 0.37094632551963636
UD_Finnish-PUD UD_Finnish-TDT 0.4885895404120444
UD_Finnish-TDT UD_Finnish-FTB 0.30467062351880203
UD_French-GSD UD_French-Sequoia 0.15006513012733605
UD_French-ParTUT UD_French-GSD 0.8156531224434143
UD_French-Sequoia UD_French-GSD 0.6644303201506592
UD_French-Spoken UD_French-GSD 0.772218073188947
UD_Galician-CTG UD_Spanish-AnCora 0.3995545036892663
UD_Galician-TreeGal UD_Galician-CTG 0.5304470969047137
UD_German-GSD UD_French-GSD 0.0643238658505834
UD_Gothic-PROIEL UD_Norwegian-Nynorsk 0.010697254800876401
UD_Greek-GDT UD_Ancient_Greek-PROIEL 0.04270281288218508
UD_Hebrew-HTB UD_Russian-GSD 0.00012923235978288964
UD_Hindi-HDTB UD_Marathi-UFAL 0.007829181494661922
UD_Hungarian-Szeged UD_Estonian-EDT 0.029605544622229828
UD_Indonesian-GSD UD_Spanish-GSD 0.10684014468498623
UD_Irish-IDT UD_Czech-PDT 0.0421179302045728
UD_Italian-ISDT UD_Italian-ParTUT 0.28131841885275266
UD_Italian-PUD UD_Italian-ISDT 0.6939434213024492
UD_Italian-ParTUT UD_Italian-ISDT 0.94163890739507
UD_Italian-PoSTWITA UD_Italian-ISDT 0.458628841607565
UD_Japanese-GSD UD_Japanese-PUD 0.14300183273849715
UD_Japanese-Modern UD_Japanese-GSD 0.28698464025869036
UD_Japanese-PUD UD_Japanese-GSD 0.6420528367258553
UD_Komi_Zyrian-IKDP UD_Russian-SynTagRus 0.2625570776255708
UD_Komi_Zyrian-Lattice UD_Russian-SynTagRus 0.08981380065717415
UD_Korean-GSD UD_Korean-Kaist 0.33444658098033264
UD_Korean-Kaist UD_Korean-GSD 0.12054521357440755
UD_Korean-PUD UD_Korean-Kaist 0.5475978647686833
UD_Kurmanji-MG UD_Spanish-GSD 0.03410024650780608
UD_Latin-ITTB UD_Latin-PROIEL 0.3706633361087982
UD_Latin-PROIEL UD_Latin-ITTB 0.2047135466564476
UD_Latin-Perseus UD_Latin-PROIEL 0.4923509561304837
UD_Latvian-LVTB UD_Croatian-SET 0.01700657226099329
UD_Lithuanian-HSE UD_Latvian-LVTB 0.046836073741903336
UD_Marathi-UFAL UD_Hindi-HDTB 0.16336633663366337
UD_Naija-NSC UD_English-EWT 0.7387706855791962
UD_North_Sami-Giella UD_Norwegian-Nynorsk 0.02200943261397742
UD_Norwegian-Bokmaal UD_Norwegian-Nynorsk 0.235598154993621
UD_Norwegian-Nynorsk UD_Norwegian-Bokmaal 0.24880812547502246
UD_Norwegian-NynorskLIA UD_Norwegian-Nynorsk 0.652271034996277
UD_Old_Church_Slavonic-PROIEL UD_Russian-SynTagRus 0.03554798409994321
UD_Persian-Seraji UD_Urdu-UDTB 0.1152851711026616
UD_Polish-LFG UD_Polish-SZ 0.40844869416297985
UD_Polish-SZ UD_Polish-LFG 0.5277035124919333
UD_Portuguese-Bosque UD_Portuguese-GSD 0.48198778410271326
UD_Portuguese-GSD UD_Portuguese-Bosque 0.40888262248854423
UD_Romanian-Nonstandard UD_Romanian-RRT 0.2388168439457963
UD_Romanian-RRT UD_Romanian-Nonstandard 0.109182959730873
UD_Russian-GSD UD_Russian-SynTagRus 0.545933032214715
UD_Russian-PUD UD_Russian-SynTagRus 0.7364854690558651
UD_Russian-SynTagRus UD_Russian-GSD 0.13309368885653183
UD_Russian-Taiga UD_Russian-SynTagRus 0.6613781303468658
UD_Sanskrit-UFAL UD_Hindi-HDTB 0.10107015457788347
UD_Serbian-SET UD_Croatian-SET 0.6212192027775923
UD_Slovak-SNK UD_Czech-PDT 0.21562197839155842
UD_Slovenian-SSJ UD_Croatian-SET 0.12061395927680021
UD_Slovenian-SST UD_Slovenian-SSJ 0.5460577673692428
UD_Spanish-AnCora UD_Spanish-GSD 0.4735815359252645
UD_Spanish-GSD UD_Spanish-AnCora 0.419714605756587
UD_Swedish-LinES UD_Swedish-Talbanken 0.30809173517957594
UD_Swedish-PUD UD_Swedish-Talbanken 0.38764362403465813
UD_Swedish-Talbanken UD_Swedish-LinES 0.25159010600706716
UD_Tagalog-TRG UD_Spanish-GSD 0.12790697674418605
UD_Turkish-IMST UD_Turkish-PUD 0.13240241193271976
UD_Turkish-PUD UD_Turkish-IMST 0.3302723242558581
UD_Ukrainian-IU UD_Russian-SynTagRus 0.09527949860522407
UD_Upper_Sorbian-UFAL UD_Czech-PDT 0.07646389994314952
UD_Urdu-UDTB UD_Persian-Seraji 0.15821331663535795
UD_Vietnamese-VTB UD_English-EWT 0.01712046204620462
UD_Yoruba-YTB UD_Spanish-GSD 0.06201550387596899